2006/dump.vcd
$date
	Thu Jan 19 16:47:10 2023
$end
$version
	ModelSim Version 10.1d
$end
$timescale
	10ps
$end
$scope module test $end
$var parameter 72 ! INPUT_DATA $end
$var parameter 80 " EXPECT_DATA $end
$var parameter 32 # period $end
$var reg 1 $ clk $end
$var reg 1 % reset $end
$var reg 1 & nt $end
$var reg 3 ' xi [2:0] $end
$var reg 3 ( yi [2:0] $end
$var wire 1 ) xo [2] $end
$var wire 1 * xo [1] $end
$var wire 1 + xo [0] $end
$var wire 1 , yo [2] $end
$var wire 1 - yo [1] $end
$var wire 1 . yo [0] $end
$var wire 1 / po $end
$var wire 1 0 busy $end
$var integer 32 1 i $end
$var integer 32 2 j $end
$var integer 32 3 k $end
$var integer 32 4 l $end
$var integer 32 5 out_f $end
$var integer 32 6 err $end
$var integer 32 7 pattern_num $end
$var integer 32 8 total_num $end
$var integer 32 9 total_cycle_num $end
$var integer 32 : a $end
$var integer 32 ; b $end
$var integer 32 < c $end
$var integer 32 = d $end
$var reg 6 > data_tmp_expect [5:0] $end
$var reg 6 ? data_tmp_i1 [5:0] $end
$var reg 6 @ data_tmp_i2 [5:0] $end
$var reg 6 A data_tmp_i3 [5:0] $end
$scope module top $end
$var parameter 32 B INPUT_MODE $end
$var parameter 32 C TRANSLATE_MODE $end
$var wire 1 D clk $end
$var wire 1 E reset $end
$var wire 1 F nt $end
$var wire 1 G xi [2] $end
$var wire 1 H xi [1] $end
$var wire 1 I xi [0] $end
$var wire 1 J yi [2] $end
$var wire 1 K yi [1] $end
$var wire 1 L yi [0] $end
$var reg 1 M busy $end
$var reg 1 N po $end
$var reg 3 O xo [2:0] $end
$var reg 3 P yo [2:0] $end
$var reg 1 Q current_state $end
$var reg 1 R next_state $end
$var reg 1 S input_over $end
$var reg 1 T translate_over $end
$var reg 4 U x1 [3:0] $end
$var reg 4 V y1 [3:0] $end
$var reg 4 W x2 [3:0] $end
$var reg 4 X y2 [3:0] $end
$var reg 4 Y x3 [3:0] $end
$var reg 4 Z y3 [3:0] $end
$var reg 8 [ oper [7:0] $end
$var reg 2 \ count_input [1:0] $end
$var reg 4 ] count_output_x [3:0] $end
$var reg 4 ^ count_output_y [3:0] $end
$upscope $end
$upscope $end
$enddefinitions $end
#0
$dumpvars
1$
0%
0&
bz '
bz (
bx >
bx ?
bx @
bx A
xM
0N
bx O
bx P
xQ
xR
xS
xT
bx U
bx V
bx W
bx X
bx Y
bx Z
bx [
bx \
bx ]
bx ^
b1111101000 #
b0 B
b1 C
b11010010110111001110000011101010111010000101110011001000110000101110100 !
b1100101011110000111000001100101011000110111010000101110011001000110000101110100 "
b0 1
b0 2
b0 3
b0 4
b10 5
b0 6
b1 7
b0 8
bx 9
bx :
bx ;
bx <
bx =
x+
x*
x)
x.
x-
x,
0/
x0
zL
zK
zJ
zI
zH
zG
0F
0E
1D
$end
#5000
0$
0D
1%
1E
0Q
#10000
1$
1D
0M
b0 O
b0 P
b0 U
b0 W
b0 Y
b0 V
b0 X
b0 Z
b1 \
b1 ]
b1 ^
0S
0T
b0 9
00
0.
0-
0,
0+
0*
0)
0R
#14999
0%
b11 3
0E
#15000
0$
0D
1&
1F
#18000
b1001 ?
b1 '
b1 (
1L
0K
0J
1I
0H
0G
#20000
1$
1D
1M
b0 [
b1 O
b1 P
b1 9
10
1.
1+
b10 \
b1 U
b1 V
#22000
bz '
bz (
zL
zK
zJ
zI
zH
zG
#25000
0$
0D
0&
0F
#28000
b100001 @
b100 '
b1 (
1L
0K
0J
0I
0H
1G
#30000
1$
1D
b10 9
b11 \
b100 W
b1 X
#32000
bz '
bz (
zL
zK
zJ
zI
zH
zG
#35000
0$
0D
#38000
b1111 A
b1 '
b111 (
1L
1K
1J
1I
0H
0G
#40000
1$
1D
b11111101 [
b11 9
1S
b1 \
b1 Y
b111 Z
1R
#42000
bz '
bz (
b11 1
zL
zK
zJ
zI
zH
zG
#45000
0$
0D
b0 3
#50000
1$
1D
1Q
b10010 [
1N
b100 9
1/
b10 ]
#55000
0$
0D
#60000
1$
1D
b1100 [
b10 O
b1001 >
b1 4
b101 9
0+
1*
b11 ]
#65000
0$
0D
#70000
1$
1D
b110 [
b11 O
b10001 >
b10 4
b110 9
1+
b100 ]
#75000
0$
0D
#80000
1$
1D
b0 [
b100 O
b11001 >
b11 4
b111 9
0+
0*
1)
b1 ]
b10 ^
#85000
0$
0D
#90000
1$
1D
b1111 [
b1 O
b10 P
b100001 >
b100 4
b1000 9
0.
1-
1+
0)
b10 ]
#95000
0$
0D
#100000
1$
1D
b1001 [
b10 O
b1010 >
b101 4
b1001 9
0+
1*
b11 ]
#105000
0$
0D
#110000
1$
1D
b11 [
b11 O
b10010 >
b110 4
b1010 9
1+
b100 ]
#115000
0$
0D
#120000
1$
1D
b11111101 [
0N
b100 O
b11010 >
b111 4
b1011 9
0/
0+
0*
1)
b1 ]
b11 ^
#125000
0$
0D
#130000
1$
1D
b1100 [
1N
b1 O
b11 P
b1100 9
1/
1.
1+
0)
b10 ]
#135000
0$
0D
#140000
1$
1D
b110 [
b10 O
b1011 >
b1000 4
b1101 9
0+
1*
b11 ]
#145000
0$
0D
#150000
1$
1D
b0 [
b11 O
b10011 >
b1001 4
b1110 9
1+
b100 ]
#155000
0$
0D
#160000
1$
1D
b11111010 [
0N
b100 O
b11011 >
b1010 4
b1111 9
0/
0+
0*
1)
b1 ]
b100 ^
#165000
0$
0D
#170000
1$
1D
b1001 [
1N
b1 O
b100 P
b10000 9
1/
0.
0-
1,
1+
0)
b10 ]
#175000
0$
0D
#180000
1$
1D
b11 [
b10 O
b1100 >
b1011 4
b10001 9
0+
1*
b11 ]
#185000
0$
0D
#190000
1$
1D
b11111101 [
0N
b11 O
b10100 >
b1100 4
b10010 9
0/
1+
b100 ]
#195000
0$
0D
#200000
1$
1D
b11110111 [
b100 O
b10011 9
0+
0*
1)
b1 ]
b101 ^
#205000
0$
0D
#210000
1$
1D
b110 [
1N
b1 O
b101 P
b10100 9
1/
1.
1+
0)
b10 ]
#215000
0$
0D
#220000
1$
1D
b0 [
b10 O
b1101 >
b1101 4
b10101 9
0+
1*
b11 ]
#225000
0$
0D
#230000
1$
1D
b11111010 [
0N
b11 O
b10101 >
b1110 4
b10110 9
0/
1+
b100 ]
#235000
0$
0D
#240000
1$
1D
b11110100 [
b100 O
b10111 9
0+
0*
1)
b1 ]
b110 ^
#245000
0$
0D
#250000
1$
1D
b11 [
1N
b1 O
b110 P
b11000 9
1/
0.
1-
1+
0)
b10 ]
#255000
0$
0D
#260000
1$
1D
b11111101 [
0N
b10 O
b1110 >
b1111 4
b11001 9
0/
0+
1*
b11 ]
#265000
0$
0D
#270000
1$
1D
b11110111 [
b11 O
b11010 9
1+
b100 ]
#275000
0$
0D
#280000
1$
1D
b11110001 [
b100 O
b11011 9
0+
0*
1)
b1 ]
b111 ^
#285000
0$
0D
#290000
1$
1D
b0 [
1N
b1 O
b111 P
b11100 9
1/
1.
1+
0)
b10 ]
#295000
0$
0D
#300000
1$
1D
b11111010 [
0N
b10 O
b1111 >
b10000 4
b11101 9
0/
0+
1*
b11 ]
#305000
0$
0D
#310000
1$
1D
b11110100 [
b11 O
b11110 9
1+
b100 ]
#315000
0$
0D
#320000
1$
1D
b11101110 [
b100 O
b11111 9
0+
0*
1)
1T
0R
#325000
0$
0D
#330000
1$
1D
0Q
0M
b100000 9
00
#335000
0$
0D
b11 3
#340000
1$
1D
b100001 9
#345000
0$
0D
1&
1F
#348000
b1 '
b1 (
1L
0K
0J
1I
0H
0G
#350000
1$
1D
1M
b100010 9
10
0S
0T
b10 \
#352000
bz '
bz (
zL
zK
zJ
zI
zH
zG
#355000
0$
0D
0&
0F
#358000
b111001 @
b111 '
b1 (
1L
0K
0J
1I
1H
1G
#360000
1$
1D
b100011 9
b11 \
b111 W
b1 ]
b1 ^
#362000
bz '
bz (
zL
zK
zJ
zI
zH
zG
#365000
0$
0D
#368000
b1011 A
b1 '
b11 (
1L
1K
0J
1I
0H
0G
#370000
1$
1D
b100100 [
b1 O
b1 P
b100100 9
0-
0,
1+
0)
1S
b1 \
b11 Z
1R
#372000
bz '
bz (
b110 1
zL
zK
zJ
zI
zH
zG
#375000
0$
0D
#380000
1$
1D
1Q
b1100 [
1N
b100101 9
1/
b10 ]
#385000
0$
0D
#390000
1$
1D
b1010 [
b10 O
b1001 >
b10001 4
b100110 9
0+
1*
b11 ]
#395000
0$
0D
#400000
1$
1D
b1000 [
b11 O
b10001 >
b10010 4
b100111 9
1+
b100 ]
#405000
0$
0D
#410000
1$
1D
b110 [
b100 O
b11001 >
b10011 4
b101000 9
0+
0*
1)
b101 ]
#415000
0$
0D
#420000
1$
1D
b100 [
b101 O
b100001 >
b10100 4
b101001 9
1+
b110 ]
#425000
0$
0D
#430000
1$
1D
b10 [
b110 O
b101001 >
b10101 4
b101010 9
0+
1*
b111 ]
#435000
0$
0D
#440000
1$
1D
b0 [
b111 O
b110001 >
b10110 4
b101011 9
1+
b1 ]
b10 ^
#445000
0$
0D
#450000
1$
1D
b110 [
b1 O
b10 P
b111001 >
b10111 4
b101100 9
0.
1-
0*
0)
b10 ]
#455000
0$
0D
#460000
1$
1D
b100 [
b10 O
b1010 >
b11000 4
b101101 9
0+
1*
b11 ]
#465000
0$
0D
#470000
1$
1D
b10 [
b11 O
b10010 >
b11001 4
b101110 9
1+
b100 ]
#475000
0$
0D
#480000
1$
1D
b0 [
b100 O
b11010 >
b11010 4
b101111 9
0+
0*
1)
b101 ]
#485000
0$
0D
#490000
1$
1D
b11111110 [
0N
b101 O
b100010 >
b11011 4
b110000 9
0/
1+
b110 ]
#495000
0$
0D
#500000
1$
1D
b11111100 [
b110 O
b110001 9
0+
1*
b111 ]
#505000
0$
0D
#510000
1$
1D
b11111010 [
b111 O
b110010 9
1+
b1 ]
b11 ^
#515000
0$
0D
#520000
1$
1D
b0 [
1N
b1 O
b11 P
b110011 9
1/
1.
0*
0)
b10 ]
#525000
0$
0D
#530000
1$
1D
b11111110 [
0N
b10 O
b1011 >
b11100 4
b1100011100111000 8
